…
fjc_old |> 
  # Remove cases with a dummy termination date
  filter(TERMDATE != "01/01/1900") |> 
  # Add a column computing how long cases are pending
  mutate(time_pending = lubridate::mdy(TERMDATE) - lubridate::mdy(FILEDATE)) |> 
  # Summarize the average time it takes to resolve a lawsuit 
  # for each nature of suit (NOS) in each circuit court
  summarize(
    .by = c(NOS, CIRCUIT),
    mean_time_pending = mean(time_pending, na.rm = TRUE)
  ) |> 
  arrange(desc(mean_time_pending))
```

    # A tibble: 1,309 × 3
         NOS CIRCUIT mean_time_pending
       <dbl> <chr>   <drtn>           
     1   420 9       3033.667 days    
     2   930 3       2674.000 days    
     3   420 7       2491.000 days    
     4   420 3       2314.000 days    
     5   420 2       2285.500 days    
     6   421 2       1992.000 days    
     7   535 9       1963.156 days    
     8   420 4       1938.000 days    
     9   310 0       1878.071 days    
    10   421 4       1815.000 days    
    # ℹ 1,299 more rows
…
